<?xml version="1.0" standalone="no"?>
<!DOCTYPE svg PUBLIC "-//W3C//DTD SVG 20010904//EN"
 "http://www.w3.org/TR/2001/REC-SVG-20010904/DTD/svg10.dtd">
<svg version="1.0" xmlns="http://www.w3.org/2000/svg"
 width="753.000000pt" height="980.000000pt" viewBox="0 0 753.000000 980.000000"
 preserveAspectRatio="xMidYMid meet">

<g transform="translate(0.000000,980.000000) scale(0.100000,-0.100000)"
fill="#000000" stroke="none">
<path d="M3365 9785 c-729 -84 -1420 -374 -1985 -834 -131 -106 -335 -304
-449 -436 -509 -586 -814 -1274 -908 -2045 -22 -180 -24 -608 -5 -785 90 -816
419 -1590 1020 -2405 242 -327 542 -686 1142 -1365 772 -874 1160 -1348 1430
-1748 51 -76 104 -146 117 -154 44 -29 68 -9 181 152 300 428 676 898 1102
1380 951 1075 1231 1407 1497 1770 576 788 885 1516 989 2330 22 172 26 603 6
770 -106 915 -483 1692 -1123 2321 -595 584 -1380 956 -2189 1039 -217 23
-672 28 -825 10z m612 -1586 c271 -36 537 -202 690 -429 46 -68 91 -163 109
-227 20 -76 32 -672 16 -777 -19 -121 -47 -162 -252 -371 -235 -240 -277 -292
-341 -415 -55 -107 -86 -140 -154 -160 -57 -17 -392 -25 -497 -12 -133 17
-175 47 -235 167 -65 130 -106 179 -314 385 -289 285 -285 274 -276 715 7 308
17 406 53 509 108 310 421 568 749 615 87 12 361 13 452 0z m-1622 -1846 c85
-43 118 -100 113 -195 l-3 -70 647 -329 647 -329 604 305 c332 168 623 315
648 328 43 24 44 25 41 68 -6 84 7 128 50 175 44 48 89 67 155 66 78 -2 142
-53 184 -147 11 -23 35 -40 99 -72 141 -70 200 -155 200 -289 0 -85 -30 -162
-84 -218 -70 -72 -95 -81 -216 -81 -97 0 -109 2 -157 29 -28 15 -63 41 -78 56
l-27 28 -186 -90 c-312 -150 -753 -380 -749 -391 4 -13 278 -156 750 -393
l368 -184 44 30 c93 64 164 76 234 40 73 -37 106 -104 99 -200 -3 -49 -10 -66
-42 -107 -36 -46 -37 -50 -30 -98 21 -128 -2 -218 -76 -299 -125 -135 -330
-135 -449 0 -66 76 -85 126 -86 227 l0 88 -82 43 c-235 126 -1201 616 -1214
616 -8 -1 -302 -148 -654 -328 l-640 -327 0 -90 c0 -74 -5 -99 -24 -137 -51
-104 -146 -178 -249 -194 -94 -15 -227 48 -292 138 -57 78 -68 153 -44 283 4
24 -2 39 -32 78 -33 43 -39 57 -42 112 -6 86 22 145 86 186 75 47 146 38 247
-31 l46 -31 492 249 c532 269 627 320 627 332 0 9 -546 290 -747 385 -179 84
-196 87 -248 45 -67 -54 -111 -70 -200 -70 -95 0 -158 25 -218 86 -59 59 -80
107 -85 195 -9 149 47 238 198 312 64 32 88 49 99 72 60 133 167 183 276 128z"/>
<path d="M3210 7136 c-155 -45 -224 -119 -224 -241 -1 -106 81 -218 180 -245
98 -28 235 7 319 81 80 70 108 193 62 274 -56 100 -223 165 -337 131z"/>
<path d="M4110 7124 c-65 -24 -124 -69 -151 -117 -63 -112 9 -264 160 -339 37
-18 63 -23 136 -23 103 0 154 20 201 79 36 44 74 141 74 185 -1 79 -64 162
-155 202 -66 30 -200 36 -265 13z"/>
<path d="M3722 6588 c-44 -46 -74 -121 -79 -198 -6 -87 6 -116 54 -129 57 -16
104 -13 140 9 39 23 50 67 34 140 -17 78 -86 210 -111 210 -3 0 -20 -15 -38
-32z"/>
</g>
</svg>
