<?xml version="1.0" standalone="no"?>
<!DOCTYPE svg PUBLIC "-//W3C//DTD SVG 20010904//EN"
 "http://www.w3.org/TR/2001/REC-SVG-20010904/DTD/svg10.dtd">
<svg version="1.0" xmlns="http://www.w3.org/2000/svg"
 width="512.000000pt" height="512.000000pt" viewBox="0 0 512.000000 512.000000"
 preserveAspectRatio="xMidYMid meet">

<g transform="translate(0.000000,512.000000) scale(0.100000,-0.100000)"
fill="#ffffff" stroke="none">
<path d="M1364 5105 c-254 -55 -446 -251 -498 -507 -14 -68 -16 -276 -16
-1803 l0 -1725 -147 0 c-227 0 -302 -12 -403 -61 -271 -134 -376 -450 -239
-721 41 -82 145 -186 227 -227 127 -64 28 -61 1798 -61 1579 0 1612 0 1690 20
230 58 400 223 470 456 17 56 19 172 24 2129 l5 2070 24 49 c94 191 342 238
504 97 20 -18 51 -61 68 -96 41 -85 44 -186 5 -270 -45 -99 -163 -185 -254
-185 -56 0 -103 -20 -122 -53 -25 -41 -25 -73 0 -114 29 -49 80 -60 179 -41
304 60 496 350 426 646 -47 199 -221 365 -419 401 -95 17 -3242 14 -3322 -4z
m2767 -242 c-16 -27 -40 -77 -53 -113 l-23 -65 -5 -2075 c-5 -2022 -5 -2076
-24 -2120 -63 -146 -181 -243 -332 -271 -81 -15 -244 -4 -300 20 -62 28 -138
103 -165 164 -35 78 -34 192 4 269 49 100 139 162 255 177 81 10 106 24 128
69 28 60 -10 132 -77 146 -18 3 -580 6 -1250 6 l-1219 0 0 1740 c0 1725 0
1741 20 1801 27 79 56 123 119 182 61 57 137 94 217 106 33 5 661 9 1396 10
l1338 1 -29 -47z m-1070 -4060 c-16 -27 -39 -81 -51 -121 -40 -133 -17 -315
55 -424 14 -20 25 -40 25 -43 0 -3 -580 -5 -1288 -5 -1397 0 -1352 -2 -1440
54 -186 117 -194 404 -15 527 88 61 2 58 1430 58 l1313 1 -29 -47z"/>
<path d="M1463 4263 c-12 -2 -34 -18 -48 -34 -36 -43 -34 -98 4 -141 l29 -33
472 0 472 0 29 33 c40 45 40 99 0 144 l-29 33 -454 1 c-249 1 -463 0 -475 -3z"/>
<path d="M1463 3619 c-74 -22 -97 -112 -44 -171 l29 -33 1112 0 1112 0 29 33
c55 61 30 150 -49 172 -48 13 -2143 12 -2189 -1z"/>
<path d="M1463 2979 c-74 -22 -97 -112 -44 -171 l29 -33 1112 0 1112 0 29 33
c55 61 30 150 -49 172 -48 13 -2143 12 -2189 -1z"/>
<path d="M1463 2339 c-74 -22 -97 -112 -44 -171 l29 -33 1094 -3 c807 -2 1100
1 1121 9 95 39 87 171 -11 199 -48 13 -2143 12 -2189 -1z"/>
<path d="M1463 1699 c-74 -22 -97 -112 -44 -171 l29 -33 1094 -3 c807 -2 1100
1 1121 9 95 39 87 171 -11 199 -48 13 -2143 12 -2189 -1z"/>
</g>
</svg>
